mc20_13TeV.346344.PhPy8EG_A14NNPDF23_NNPDF30ME_ttH125_semilep.deriv.DAOD_PHYSLITE.e7148_s3681_r13144_p6490
mc20_13TeV.346344.PhPy8EG_A14NNPDF23_NNPDF30ME_ttH125_semilep.deriv.DAOD_PHYSLITE.e7148_s3681_r13145_p6490
mc20_13TeV.346344.PhPy8EG_A14NNPDF23_NNPDF30ME_ttH125_semilep.deriv.DAOD_PHYSLITE.e7148_s3681_r13167_p6490

mc20_13TeV.346345.PhPy8EG_A14NNPDF23_NNPDF30ME_ttH125_dilep.deriv.DAOD_PHYSLITE.e7148_s3681_r13144_p6490
mc20_13TeV.346345.PhPy8EG_A14NNPDF23_NNPDF30ME_ttH125_dilep.deriv.DAOD_PHYSLITE.e7148_s3681_r13145_p6490
mc20_13TeV.346345.PhPy8EG_A14NNPDF23_NNPDF30ME_ttH125_dilep.deriv.DAOD_PHYSLITE.e7148_s3681_r13167_p6490
