mc20_13TeV.410646.PowhegPythia8EvtGen_A14_Wt_DR_inclusive_top.deriv.DAOD_PHYS.e6552_s3681_r13144_p6490
mc20_13TeV.410646.PowhegPythia8EvtGen_A14_Wt_DR_inclusive_top.deriv.DAOD_PHYS.e6552_s3681_r13145_p6490
mc20_13TeV.410646.PowhegPythia8EvtGen_A14_Wt_DR_inclusive_top.deriv.DAOD_PHYS.e6552_s3681_r13167_p6490


mc20_13TeV.410647.PowhegPythia8EvtGen_A14_Wt_DR_inclusive_antitop.deriv.DAOD_PHYS.e6552_s3681_r13144_p6490
mc20_13TeV.410647.PowhegPythia8EvtGen_A14_Wt_DR_inclusive_antitop.deriv.DAOD_PHYS.e6552_s3681_r13145_p6490
mc20_13TeV.410647.PowhegPythia8EvtGen_A14_Wt_DR_inclusive_antitop.deriv.DAOD_PHYS.e6552_s3681_r13167_p6490


mc20_13TeV.410658.PhPy8EG_A14_tchan_BW50_lept_top.deriv.DAOD_PHYSLITE.e6671_s3681_r13144_p6490
mc20_13TeV.410658.PhPy8EG_A14_tchan_BW50_lept_top.deriv.DAOD_PHYSLITE.e6671_s3681_r13145_p6490
mc20_13TeV.410658.PhPy8EG_A14_tchan_BW50_lept_top.deriv.DAOD_PHYSLITE.e6671_s3681_r13167_p6490


mc20_13TeV.410659.PhPy8EG_A14_tchan_BW50_lept_antitop.deriv.DAOD_PHYSLITE.e6671_s3681_r13144_p6490
mc20_13TeV.410659.PhPy8EG_A14_tchan_BW50_lept_antitop.deriv.DAOD_PHYSLITE.e6671_s3681_r13145_p6490
mc20_13TeV.410659.PhPy8EG_A14_tchan_BW50_lept_antitop.deriv.DAOD_PHYSLITE.e6671_s3681_r13167_p6490


mc20_13TeV.410644.PowhegPythia8EvtGen_A14_singletop_schan_lept_top.deriv.DAOD_PHYSLITE.e6527_s3681_r13144_p6490
mc20_13TeV.410644.PowhegPythia8EvtGen_A14_singletop_schan_lept_top.deriv.DAOD_PHYSLITE.e6527_s3681_r13145_p6490
mc20_13TeV.410644.PowhegPythia8EvtGen_A14_singletop_schan_lept_top.deriv.DAOD_PHYSLITE.e6527_s3681_r13167_p6490


mc20_13TeV.410645.PowhegPythia8EvtGen_A14_singletop_schan_lept_antitop.deriv.DAOD_PHYSLITE.e6527_s3681_r13144_p6490
mc20_13TeV.410645.PowhegPythia8EvtGen_A14_singletop_schan_lept_antitop.deriv.DAOD_PHYSLITE.e6527_s3681_r13145_p6490
mc20_13TeV.410645.PowhegPythia8EvtGen_A14_singletop_schan_lept_antitop.deriv.DAOD_PHYSLITE.e6527_s3681_r13167_p6490


mc20_13TeV.410408.aMcAtNloPythia8EvtGen_tWZ_Ztoll_minDR1.deriv.DAOD_PHYSLITE.e6423_s3681_r13144_p6490
mc20_13TeV.410408.aMcAtNloPythia8EvtGen_tWZ_Ztoll_minDR1.deriv.DAOD_PHYSLITE.e6423_s3681_r13145_p6490
mc20_13TeV.410408.aMcAtNloPythia8EvtGen_tWZ_Ztoll_minDR1.deriv.DAOD_PHYSLITE.e6423_s3681_r13167_p6490


mc20_13TeV.410560.MadGraphPythia8EvtGen_A14_tZ_4fl_tchan_noAllHad.deriv.DAOD_PHYS.e5803_s3681_r13144_p6490
mc20_13TeV.410560.MadGraphPythia8EvtGen_A14_tZ_4fl_tchan_noAllHad.deriv.DAOD_PHYS.e5803_s3681_r13145_p6490
mc20_13TeV.410560.MadGraphPythia8EvtGen_A14_tZ_4fl_tchan_noAllHad.deriv.DAOD_PHYS.e5803_s3681_r13167_p6490
