mc20_13TeV.346214.PowhegPy8EG_NNPDF30_AZNLOCTEQ6L1_VBFH125_gamgam.deriv.DAOD_PHYSLITE.e6970_s3681_r13167_p6490
mc20_13TeV.346214.PowhegPy8EG_NNPDF30_AZNLOCTEQ6L1_VBFH125_gamgam.deriv.DAOD_PHYSLITE.e6970_s3681_r13144_p6490
mc20_13TeV.346214.PowhegPy8EG_NNPDF30_AZNLOCTEQ6L1_VBFH125_gamgam.deriv.DAOD_PHYSLITE.e6970_s3681_r13145_p6490
