mc20_13TeV.701000.Sh_2214_lllljj.deriv.DAOD_PHYSLITE.e8547_s3797_r13144_p6266
mc20_13TeV.701000.Sh_2214_lllljj.deriv.DAOD_PHYSLITE.e8547_s3797_r13145_p6266
mc20_13TeV.701000.Sh_2214_lllljj.deriv.DAOD_PHYSLITE.e8547_s3797_r13167_p6266

mc20_13TeV.701005.Sh_2214_lllvjj.deriv.DAOD_PHYSLITE.e8547_s3797_r13144_p6266
mc20_13TeV.701005.Sh_2214_lllvjj.deriv.DAOD_PHYSLITE.e8547_s3797_r13145_p6266
mc20_13TeV.701005.Sh_2214_lllvjj.deriv.DAOD_PHYSLITE.e8547_s3797_r13167_p6266

mc20_13TeV.701010.Sh_2214_llvvjj_os.deriv.DAOD_PHYSLITE.e8547_s3797_r13144_p6266
mc20_13TeV.701010.Sh_2214_llvvjj_os.deriv.DAOD_PHYSLITE.e8547_s3797_r13145_p6266
mc20_13TeV.701010.Sh_2214_llvvjj_os.deriv.DAOD_PHYSLITE.e8547_s3797_r13167_p6266

mc20_13TeV.701015.Sh_2214_llvvjj_ss.deriv.DAOD_PHYSLITE.e8547_s3797_r13144_p6266
mc20_13TeV.701015.Sh_2214_llvvjj_ss.deriv.DAOD_PHYSLITE.e8547_s3797_r13145_p6266
mc20_13TeV.701015.Sh_2214_llvvjj_ss.deriv.DAOD_PHYSLITE.e8547_s3797_r13167_p6266

mc20_13TeV.700600.Sh_2212_llll.deriv.DAOD_PHYSLITE.e8433_s3681_r13144_p6266
mc20_13TeV.700600.Sh_2212_llll.deriv.DAOD_PHYSLITE.e8433_s3681_r13145_p6266
mc20_13TeV.700600.Sh_2212_llll.deriv.DAOD_PHYSLITE.e8433_s3681_r13167_p6266

mc20_13TeV.700601.Sh_2212_lllv.deriv.DAOD_PHYSLITE.e8433_s3681_r13144_p6266
mc20_13TeV.700601.Sh_2212_lllv.deriv.DAOD_PHYSLITE.e8433_s3681_r13145_p6266
mc20_13TeV.700601.Sh_2212_lllv.deriv.DAOD_PHYSLITE.e8433_s3681_r13167_p6266

mc20_13TeV.700602.Sh_2212_llvv_os.deriv.DAOD_PHYSLITE.e8433_s3681_r13144_p6266
mc20_13TeV.700602.Sh_2212_llvv_os.deriv.DAOD_PHYSLITE.e8433_s3681_r13145_p6266
mc20_13TeV.700602.Sh_2212_llvv_os.deriv.DAOD_PHYSLITE.e8433_s3681_r13167_p6266

mc20_13TeV.701055.Sh_2214_llvv_ss.deriv.DAOD_PHYSLITE.e8547_s3797_r13144_p6266
mc20_13TeV.701055.Sh_2214_llvv_ss.deriv.DAOD_PHYSLITE.e8547_s3797_r13145_p6266
mc20_13TeV.701055.Sh_2214_llvv_ss.deriv.DAOD_PHYSLITE.e8547_s3797_r13167_p6266

mc20_13TeV.700604.Sh_2212_lvvv.deriv.DAOD_PHYSLITE.e8433_s3681_r13144_p6266
mc20_13TeV.700604.Sh_2212_lvvv.deriv.DAOD_PHYSLITE.e8433_s3681_r13145_p6266
mc20_13TeV.700604.Sh_2212_lvvv.deriv.DAOD_PHYSLITE.e8433_s3681_r13167_p6266

mc20_13TeV.701085.Sh_2214_ZqqZll.deriv.DAOD_PHYSLITE.e8547_s3797_r13144_p6266
mc20_13TeV.701085.Sh_2214_ZqqZll.deriv.DAOD_PHYSLITE.e8547_s3797_r13145_p6266
mc20_13TeV.701085.Sh_2214_ZqqZll.deriv.DAOD_PHYSLITE.e8547_s3797_r13167_p6266

mc20_13TeV.701090.Sh_2214_ZbbZll.deriv.DAOD_PHYSLITE.e8547_s3797_r13144_p6266
mc20_13TeV.701090.Sh_2214_ZbbZll.deriv.DAOD_PHYSLITE.e8547_s3797_r13145_p6266
mc20_13TeV.701090.Sh_2214_ZbbZll.deriv.DAOD_PHYSLITE.e8547_s3797_r13167_p6266

mc20_13TeV.701095.Sh_2214_ZqqZvv.deriv.DAOD_PHYSLITE.e8547_s3797_r13144_p6266
mc20_13TeV.701095.Sh_2214_ZqqZvv.deriv.DAOD_PHYSLITE.e8547_s3797_r13145_p6266
mc20_13TeV.701095.Sh_2214_ZqqZvv.deriv.DAOD_PHYSLITE.e8547_s3797_r13167_p6266

mc20_13TeV.701100.Sh_2214_ZbbZvv.deriv.DAOD_PHYSLITE.e8547_s3797_r13144_p6266
mc20_13TeV.701100.Sh_2214_ZbbZvv.deriv.DAOD_PHYSLITE.e8547_s3797_r13145_p6266
mc20_13TeV.701100.Sh_2214_ZbbZvv.deriv.DAOD_PHYSLITE.e8547_s3797_r13167_p6266

mc20_13TeV.701105.Sh_2214_WqqZll.deriv.DAOD_PHYSLITE.e8547_s3797_r13144_p6266
mc20_13TeV.701105.Sh_2214_WqqZll.deriv.DAOD_PHYSLITE.e8547_s3797_r13145_p6266
mc20_13TeV.701105.Sh_2214_WqqZll.deriv.DAOD_PHYSLITE.e8547_s3797_r13167_p6266

mc20_13TeV.701110.Sh_2214_WqqZvv.deriv.DAOD_PHYSLITE.e8547_s3797_r13144_p6266
mc20_13TeV.701110.Sh_2214_WqqZvv.deriv.DAOD_PHYSLITE.e8547_s3797_r13145_p6266
mc20_13TeV.701110.Sh_2214_WqqZvv.deriv.DAOD_PHYSLITE.e8547_s3797_r13167_p6266

mc20_13TeV.701115.Sh_2214_WlvZqq.deriv.DAOD_PHYSLITE.e8547_s3797_r13144_p6266
mc20_13TeV.701115.Sh_2214_WlvZqq.deriv.DAOD_PHYSLITE.e8547_s3797_r13145_p6266
mc20_13TeV.701115.Sh_2214_WlvZqq.deriv.DAOD_PHYSLITE.e8547_s3797_r13167_p6266

mc20_13TeV.701120.Sh_2214_WlvZbb.deriv.DAOD_PHYSLITE.e8547_s3797_r13144_p6266
mc20_13TeV.701120.Sh_2214_WlvZbb.deriv.DAOD_PHYSLITE.e8547_s3797_r13145_p6266
mc20_13TeV.701120.Sh_2214_WlvZbb.deriv.DAOD_PHYSLITE.e8547_s3797_r13167_p6266

mc20_13TeV.701125.Sh_2214_WlvWqq.deriv.DAOD_PHYSLITE.e8547_s3797_r13144_p6266
mc20_13TeV.701125.Sh_2214_WlvWqq.deriv.DAOD_PHYSLITE.e8547_s3797_r13145_p6266
mc20_13TeV.701125.Sh_2214_WlvWqq.deriv.DAOD_PHYSLITE.e8547_s3797_r13167_p6266

